{
  "_embedded": {
    "conversations": [
      {
        "id": "1",
        "title": "Conversation Item 1",
        "_links": {
          "self": {
            "href": "/api/users/1/conversations/1",
            "type": "GET"
          },
          "messages": {
            "href": "/api/users/1/conversations/1/messages",
            "type": "GET"
          },
          "send-message": {
            "href": "/api/users/1/conversations/1/messages:chat",
            "type": "POST"
          },
          "chat-to-breakdown-epic": {
            "href": "/api/users/1/conversations/1/chat-to-breakdown-epic",
            "type": "POST"
          }
        }
      },
      {
        "id": "2",
        "title": "Conversation Item 2",
        "_links": {
          "self": {
            "href": "/api/users/1/conversations/2",
            "type": "GET"
          },
          "messages": {
            "href": "/api/users/1/conversations/2/messages",
            "type": "GET"
          },
          "send-message": {
            "href": "/api/users/1/conversations/2/messages:chat",
            "type": "POST"
          },
          "chat-to-breakdown-epic": {
            "href": "/api/users/1/conversations/2/chat-to-breakdown-epic",
            "type": "POST"
          }
        }
      },
      {
        "id": "3",
        "title": "Conversation Item 3",
        "_links": {
          "self": {
            "href": "/api/users/1/conversations/3",
            "type": "GET"
          },
          "messages": {
            "href": "/api/users/1/conversations/3/messages",
            "type": "GET"
          },
          "send-message": {
            "href": "/api/users/1/conversations/3/messages:chat",
            "type": "POST"
          },
          "chat-to-breakdown-epic": {
            "href": "/api/users/1/conversations/3/chat-to-breakdown-epic",
            "type": "POST"
          }
        }
      },
      {
        "id": "4",
        "title": "Conversation Item 4",
        "_links": {
          "self": {
            "href": "/api/users/1/conversations/4",
            "type": "GET"
          },
          "messages": {
            "href": "/api/users/1/conversations/4/messages",
            "type": "GET"
          },
          "send-message": {
            "href": "/api/users/1/conversations/4/messages:chat",
            "type": "POST"
          },
          "chat-to-breakdown-epic": {
            "href": "/api/users/1/conversations/4/chat-to-breakdown-epic",
            "type": "POST"
          }
        }
      },
      {
        "id": "5",
        "title": "Conversation Item 5",
        "_links": {
          "self": {
            "href": "/api/users/1/conversations/5",
            "type": "GET"
          },
          "messages": {
            "href": "/api/users/1/conversations/5/messages",
            "type": "GET"
          },
          "send-message": {
            "href": "/api/users/1/conversations/5/messages:chat",
            "type": "POST"
          },
          "chat-to-breakdown-epic": {
            "href": "/api/users/1/conversations/5/chat-to-breakdown-epic",
            "type": "POST"
          }
        }
      },
      {
        "id": "6",
        "title": "",
        "_links": {
          "self": {
            "href": "/api/users/1/conversations/6",
            "type": "GET"
          },
          "messages": {
            "href": "/api/users/1/conversations/6/messages",
            "type": "GET"
          },
          "send-message": {
            "href": "/api/users/1/conversations/6/messages:chat",
            "type": "POST"
          },
          "chat-to-breakdown-epic": {
            "href": "/api/users/1/conversations/6/chat-to-breakdown-epic",
            "type": "POST"
          }
        }
      },
      {
        "id": "7",
        "title": "",
        "_links": {
          "self": {
            "href": "/api/users/1/conversations/7",
            "type": "GET"
          },
          "messages": {
            "href": "/api/users/1/conversations/7/messages",
            "type": "GET"
          },
          "send-message": {
            "href": "/api/users/1/conversations/7/messages:chat",
            "type": "POST"
          },
          "chat-to-breakdown-epic": {
            "href": "/api/users/1/conversations/7/chat-to-breakdown-epic",
            "type": "POST"
          }
        }
      },
      {
        "id": "8",
        "title": "",
        "_links": {
          "self": {
            "href": "/api/users/1/conversations/8",
            "type": "GET"
          },
          "messages": {
            "href": "/api/users/1/conversations/8/messages",
            "type": "GET"
          },
          "send-message": {
            "href": "/api/users/1/conversations/8/messages:chat",
            "type": "POST"
          },
          "chat-to-breakdown-epic": {
            "href": "/api/users/1/conversations/8/chat-to-breakdown-epic",
            "type": "POST"
          }
        }
      },
      {
        "id": "9",
        "title": "",
        "_links": {
          "self": {
            "href": "/api/users/1/conversations/9",
            "type": "GET"
          },
          "messages": {
            "href": "/api/users/1/conversations/9/messages",
            "type": "GET"
          },
          "send-message": {
            "href": "/api/users/1/conversations/9/messages:chat",
            "type": "POST"
          },
          "chat-to-breakdown-epic": {
            "href": "/api/users/1/conversations/9/chat-to-breakdown-epic",
            "type": "POST"
          }
        }
      },
      {
        "id": "10",
        "title": "",
        "_links": {
          "self": {
            "href": "/api/users/1/conversations/10",
            "type": "GET"
          },
          "messages": {
            "href": "/api/users/1/conversations/10/messages",
            "type": "GET"
          },
          "send-message": {
            "href": "/api/users/1/conversations/10/messages:chat",
            "type": "POST"
          },
          "chat-to-breakdown-epic": {
            "href": "/api/users/1/conversations/10/chat-to-breakdown-epic",
            "type": "POST"
          }
        }
      },
      {
        "id": "11",
        "title": "",
        "_links": {
          "self": {
            "href": "/api/users/1/conversations/11",
            "type": "GET"
          },
          "messages": {
            "href": "/api/users/1/conversations/11/messages",
            "type": "GET"
          },
          "send-message": {
            "href": "/api/users/1/conversations/11/messages:chat",
            "type": "POST"
          },
          "chat-to-breakdown-epic": {
            "href": "/api/users/1/conversations/11/chat-to-breakdown-epic",
            "type": "POST"
          }
        }
      },
      {
        "id": "12",
        "title": "",
        "_links": {
          "self": {
            "href": "/api/users/1/conversations/12",
            "type": "GET"
          },
          "messages": {
            "href": "/api/users/1/conversations/12/messages",
            "type": "GET"
          },
          "send-message": {
            "href": "/api/users/1/conversations/12/messages:chat",
            "type": "POST"
          },
          "chat-to-breakdown-epic": {
            "href": "/api/users/1/conversations/12/chat-to-breakdown-epic",
            "type": "POST"
          }
        }
      },
      {
        "id": "13",
        "title": "",
        "_links": {
          "self": {
            "href": "/api/users/1/conversations/13",
            "type": "GET"
          },
          "messages": {
            "href": "/api/users/1/conversations/13/messages",
            "type": "GET"
          },
          "send-message": {
            "href": "/api/users/1/conversations/13/messages:chat",
            "type": "POST"
          },
          "chat-to-breakdown-epic": {
            "href": "/api/users/1/conversations/13/chat-to-breakdown-epic",
            "type": "POST"
          }
        }
      },
      {
        "id": "14",
        "title": "",
        "_links": {
          "self": {
            "href": "/api/users/1/conversations/14",
            "type": "GET"
          },
          "messages": {
            "href": "/api/users/1/conversations/14/messages",
            "type": "GET"
          },
          "send-message": {
            "href": "/api/users/1/conversations/14/messages:chat",
            "type": "POST"
          },
          "chat-to-breakdown-epic": {
            "href": "/api/users/1/conversations/14/chat-to-breakdown-epic",
            "type": "POST"
          }
        }
      },
      {
        "id": "15",
        "title": "",
        "_links": {
          "self": {
            "href": "/api/users/1/conversations/15",
            "type": "GET"
          },
          "messages": {
            "href": "/api/users/1/conversations/15/messages",
            "type": "GET"
          },
          "send-message": {
            "href": "/api/users/1/conversations/15/messages:chat",
            "type": "POST"
          },
          "chat-to-breakdown-epic": {
            "href": "/api/users/1/conversations/15/chat-to-breakdown-epic",
            "type": "POST"
          }
        }
      },
      {
        "id": "16",
        "title": "",
        "_links": {
          "self": {
            "href": "/api/users/1/conversations/16",
            "type": "GET"
          },
          "messages": {
            "href": "/api/users/1/conversations/16/messages",
            "type": "GET"
          },
          "send-message": {
            "href": "/api/users/1/conversations/16/messages:chat",
            "type": "POST"
          },
          "chat-to-breakdown-epic": {
            "href": "/api/users/1/conversations/16/chat-to-breakdown-epic",
            "type": "POST"
          }
        }
      },
      {
        "id": "17",
        "title": "",
        "_links": {
          "self": {
            "href": "/api/users/1/conversations/17",
            "type": "GET"
          },
          "messages": {
            "href": "/api/users/1/conversations/17/messages",
            "type": "GET"
          },
          "send-message": {
            "href": "/api/users/1/conversations/17/messages:chat",
            "type": "POST"
          },
          "chat-to-breakdown-epic": {
            "href": "/api/users/1/conversations/17/chat-to-breakdown-epic",
            "type": "POST"
          }
        }
      },
      {
        "id": "18",
        "title": "",
        "_links": {
          "self": {
            "href": "/api/users/1/conversations/18",
            "type": "GET"
          },
          "messages": {
            "href": "/api/users/1/conversations/18/messages",
            "type": "GET"
          },
          "send-message": {
            "href": "/api/users/1/conversations/18/messages:chat",
            "type": "POST"
          },
          "chat-to-breakdown-epic": {
            "href": "/api/users/1/conversations/18/chat-to-breakdown-epic",
            "type": "POST"
          }
        }
      },
      {
        "id": "19",
        "title": "",
        "_links": {
          "self": {
            "href": "/api/users/1/conversations/19",
            "type": "GET"
          },
          "messages": {
            "href": "/api/users/1/conversations/19/messages",
            "type": "GET"
          },
          "send-message": {
            "href": "/api/users/1/conversations/19/messages:chat",
            "type": "POST"
          },
          "chat-to-breakdown-epic": {
            "href": "/api/users/1/conversations/19/chat-to-breakdown-epic",
            "type": "POST"
          }
        }
      },
      {
        "id": "20",
        "_links": {
          "self": {
            "href": "/api/users/1/conversations/20",
            "type": "GET"
          },
          "messages": {
            "href": "/api/users/1/conversations/20/messages",
            "type": "GET"
          },
          "send-message": {
            "href": "/api/users/1/conversations/20/messages:chat",
            "type": "POST"
          },
          "chat-to-breakdown-epic": {
            "href": "/api/users/1/conversations/20/chat-to-breakdown-epic",
            "type": "POST"
          }
        }
      },
      {
        "id": "21",
        "title": "new title",
        "_links": {
          "self": {
            "href": "/api/users/1/conversations/21",
            "type": "GET"
          },
          "messages": {
            "href": "/api/users/1/conversations/21/messages",
            "type": "GET"
          },
          "send-message": {
            "href": "/api/users/1/conversations/21/messages:chat",
            "type": "POST"
          },
          "chat-to-breakdown-epic": {
            "href": "/api/users/1/conversations/21/chat-to-breakdown-epic",
            "type": "POST"
          }
        }
      },
      {
        "id": "22",
        "title": "new title",
        "_links": {
          "self": {
            "href": "/api/users/1/conversations/22",
            "type": "GET"
          },
          "messages": {
            "href": "/api/users/1/conversations/22/messages",
            "type": "GET"
          },
          "send-message": {
            "href": "/api/users/1/conversations/22/messages:chat",
            "type": "POST"
          },
          "chat-to-breakdown-epic": {
            "href": "/api/users/1/conversations/22/chat-to-breakdown-epic",
            "type": "POST"
          }
        }
      },
      {
        "id": "23",
        "title": "new title",
        "_links": {
          "self": {
            "href": "/api/users/1/conversations/23",
            "type": "GET"
          },
          "messages": {
            "href": "/api/users/1/conversations/23/messages",
            "type": "GET"
          },
          "send-message": {
            "href": "/api/users/1/conversations/23/messages:chat",
            "type": "POST"
          },
          "chat-to-breakdown-epic": {
            "href": "/api/users/1/conversations/23/chat-to-breakdown-epic",
            "type": "POST"
          }
        }
      },
      {
        "id": "24",
        "title": "new title",
        "_links": {
          "self": {
            "href": "/api/users/1/conversations/24",
            "type": "GET"
          },
          "messages": {
            "href": "/api/users/1/conversations/24/messages",
            "type": "GET"
          },
          "send-message": {
            "href": "/api/users/1/conversations/24/messages:chat",
            "type": "POST"
          },
          "chat-to-breakdown-epic": {
            "href": "/api/users/1/conversations/24/chat-to-breakdown-epic",
            "type": "POST"
          }
        }
      },
      {
        "id": "25",
        "title": "new title",
        "_links": {
          "self": {
            "href": "/api/users/1/conversations/25",
            "type": "GET"
          },
          "messages": {
            "href": "/api/users/1/conversations/25/messages",
            "type": "GET"
          },
          "send-message": {
            "href": "/api/users/1/conversations/25/messages:chat",
            "type": "POST"
          },
          "chat-to-breakdown-epic": {
            "href": "/api/users/1/conversations/25/chat-to-breakdown-epic",
            "type": "POST"
          }
        }
      },
      {
        "id": "26",
        "title": "new title",
        "_links": {
          "self": {
            "href": "/api/users/1/conversations/26",
            "type": "GET"
          },
          "messages": {
            "href": "/api/users/1/conversations/26/messages",
            "type": "GET"
          },
          "send-message": {
            "href": "/api/users/1/conversations/26/messages:chat",
            "type": "POST"
          },
          "chat-to-breakdown-epic": {
            "href": "/api/users/1/conversations/26/chat-to-breakdown-epic",
            "type": "POST"
          }
        }
      },
      {
        "id": "27",
        "title": "new title",
        "_links": {
          "self": {
            "href": "/api/users/1/conversations/27",
            "type": "GET"
          },
          "messages": {
            "href": "/api/users/1/conversations/27/messages",
            "type": "GET"
          },
          "send-message": {
            "href": "/api/users/1/conversations/27/messages:chat",
            "type": "POST"
          },
          "chat-to-breakdown-epic": {
            "href": "/api/users/1/conversations/27/chat-to-breakdown-epic",
            "type": "POST"
          }
        }
      },
      {
        "id": "28",
        "title": "new title",
        "_links": {
          "self": {
            "href": "/api/users/1/conversations/28",
            "type": "GET"
          },
          "messages": {
            "href": "/api/users/1/conversations/28/messages",
            "type": "GET"
          },
          "send-message": {
            "href": "/api/users/1/conversations/28/messages:chat",
            "type": "POST"
          },
          "chat-to-breakdown-epic": {
            "href": "/api/users/1/conversations/28/chat-to-breakdown-epic",
            "type": "POST"
          }
        }
      },
      {
        "id": "29",
        "title": "new title",
        "_links": {
          "self": {
            "href": "/api/users/1/conversations/29",
            "type": "GET"
          },
          "messages": {
            "href": "/api/users/1/conversations/29/messages",
            "type": "GET"
          },
          "send-message": {
            "href": "/api/users/1/conversations/29/messages:chat",
            "type": "POST"
          },
          "chat-to-breakdown-epic": {
            "href": "/api/users/1/conversations/29/chat-to-breakdown-epic",
            "type": "POST"
          }
        }
      },
      {
        "id": "30",
        "title": "new title",
        "_links": {
          "self": {
            "href": "/api/users/1/conversations/30",
            "type": "GET"
          },
          "messages": {
            "href": "/api/users/1/conversations/30/messages",
            "type": "GET"
          },
          "send-message": {
            "href": "/api/users/1/conversations/30/messages:chat",
            "type": "POST"
          },
          "chat-to-breakdown-epic": {
            "href": "/api/users/1/conversations/30/chat-to-breakdown-epic",
            "type": "POST"
          }
        }
      },
      {
        "id": "31",
        "title": "new title",
        "_links": {
          "self": {
            "href": "/api/users/1/conversations/31",
            "type": "GET"
          },
          "messages": {
            "href": "/api/users/1/conversations/31/messages",
            "type": "GET"
          },
          "send-message": {
            "href": "/api/users/1/conversations/31/messages:chat",
            "type": "POST"
          },
          "chat-to-breakdown-epic": {
            "href": "/api/users/1/conversations/31/chat-to-breakdown-epic",
            "type": "POST"
          }
        }
      },
      {
        "id": "32",
        "title": "new title",
        "_links": {
          "self": {
            "href": "/api/users/1/conversations/32",
            "type": "GET"
          },
          "messages": {
            "href": "/api/users/1/conversations/32/messages",
            "type": "GET"
          },
          "send-message": {
            "href": "/api/users/1/conversations/32/messages:chat",
            "type": "POST"
          },
          "chat-to-breakdown-epic": {
            "href": "/api/users/1/conversations/32/chat-to-breakdown-epic",
            "type": "POST"
          }
        }
      },
      {
        "id": "33",
        "title": "new title",
        "_links": {
          "self": {
            "href": "/api/users/1/conversations/33",
            "type": "GET"
          },
          "messages": {
            "href": "/api/users/1/conversations/33/messages",
            "type": "GET"
          },
          "send-message": {
            "href": "/api/users/1/conversations/33/messages:chat",
            "type": "POST"
          },
          "chat-to-breakdown-epic": {
            "href": "/api/users/1/conversations/33/chat-to-breakdown-epic",
            "type": "POST"
          }
        }
      },
      {
        "id": "34",
        "title": "new title",
        "_links": {
          "self": {
            "href": "/api/users/1/conversations/34",
            "type": "GET"
          },
          "messages": {
            "href": "/api/users/1/conversations/34/messages",
            "type": "GET"
          },
          "send-message": {
            "href": "/api/users/1/conversations/34/messages:chat",
            "type": "POST"
          },
          "chat-to-breakdown-epic": {
            "href": "/api/users/1/conversations/34/chat-to-breakdown-epic",
            "type": "POST"
          }
        }
      },
      {
        "id": "35",
        "title": "new title",
        "_links": {
          "self": {
            "href": "/api/users/1/conversations/35",
            "type": "GET"
          },
          "messages": {
            "href": "/api/users/1/conversations/35/messages",
            "type": "GET"
          },
          "send-message": {
            "href": "/api/users/1/conversations/35/messages:chat",
            "type": "POST"
          },
          "chat-to-breakdown-epic": {
            "href": "/api/users/1/conversations/35/chat-to-breakdown-epic",
            "type": "POST"
          }
        }
      },
      {
        "id": "36",
        "title": "new title",
        "_links": {
          "self": {
            "href": "/api/users/1/conversations/36",
            "type": "GET"
          },
          "messages": {
            "href": "/api/users/1/conversations/36/messages",
            "type": "GET"
          },
          "send-message": {
            "href": "/api/users/1/conversations/36/messages:chat",
            "type": "POST"
          },
          "chat-to-breakdown-epic": {
            "href": "/api/users/1/conversations/36/chat-to-breakdown-epic",
            "type": "POST"
          }
        }
      },
      {
        "id": "37",
        "title": "new title",
        "_links": {
          "self": {
            "href": "/api/users/1/conversations/37",
            "type": "GET"
          },
          "messages": {
            "href": "/api/users/1/conversations/37/messages",
            "type": "GET"
          },
          "send-message": {
            "href": "/api/users/1/conversations/37/messages:chat",
            "type": "POST"
          },
          "chat-to-breakdown-epic": {
            "href": "/api/users/1/conversations/37/chat-to-breakdown-epic",
            "type": "POST"
          }
        }
      },
      {
        "id": "38",
        "title": "new title",
        "_links": {
          "self": {
            "href": "/api/users/1/conversations/38",
            "type": "GET"
          },
          "messages": {
            "href": "/api/users/1/conversations/38/messages",
            "type": "GET"
          },
          "send-message": {
            "href": "/api/users/1/conversations/38/messages:chat",
            "type": "POST"
          },
          "chat-to-breakdown-epic": {
            "href": "/api/users/1/conversations/38/chat-to-breakdown-epic",
            "type": "POST"
          }
        }
      },
      {
        "id": "39",
        "title": "",
        "_links": {
          "self": {
            "href": "/api/users/1/conversations/39",
            "type": "GET"
          },
          "messages": {
            "href": "/api/users/1/conversations/39/messages",
            "type": "GET"
          },
          "send-message": {
            "href": "/api/users/1/conversations/39/messages:chat",
            "type": "POST"
          },
          "chat-to-breakdown-epic": {
            "href": "/api/users/1/conversations/39/chat-to-breakdown-epic",
            "type": "POST"
          }
        }
      },
      {
        "id": "40",
        "title": "",
        "_links": {
          "self": {
            "href": "/api/users/1/conversations/40",
            "type": "GET"
          },
          "messages": {
            "href": "/api/users/1/conversations/40/messages",
            "type": "GET"
          },
          "send-message": {
            "href": "/api/users/1/conversations/40/messages:chat",
            "type": "POST"
          },
          "chat-to-breakdown-epic": {
            "href": "/api/users/1/conversations/40/chat-to-breakdown-epic",
            "type": "POST"
          }
        }
      }
    ]
  },
  "_links": {
    "self": {
      "href": "/api/users/1/conversations?page=0"
    },
    "next": {
      "href": "/api/users/1/conversations?page=1"
    }
  },
  "page": {
    "size": 40,
    "totalElements": 63,
    "totalPages": 2,
    "number": 0
  }
}
